{
  "alphabet": "01",
  "states": ["start", "any", "zero"],
  "start_state": "start",
  "accept_states": ["zero"],
  "transitions": [
    {
      "state": "start",
      "input": ["0", "1"],
      "transition": "any"
    },
    {
      "state": "start",
      "input": ["0"],
      "transition": "zero"
    },
    {
      "state": "any",
      "input": ["0", "1"],
      "transition": "any"
    },
    {
      "state": "any",
      "input": ["0"],
      "transition": "zero"
    }
  ]
}